{
    "data": [
        {
            "id": 140314,
            "job_title": "Data Engineer- Remote",
            "job_link": "https://www.linkedin.com/jobs/view/data-engineer-remote-at-beyondtrust-3997359817?position=36&pageNum=0&refId=adNNTmCAm1zEcshFvOmyMA%3D%3D&trackingId=6Pvf%2BCPEH18EmLH7y6ddNQ%3D%3D&trk=public_jobs_jserp-result_search-card",
            "job_description_id": null,
            "company_id": null,
            "created_at": "2024-09-01T07:04:55.485Z",
            "updated_at": "2024-09-01T07:04:55.485Z",
            "company_name": "BeyondTrust",
            "source": null,
            "scraped_from": null
        },
        {
            "id": 140321,
            "job_title": "AI & Data Engineering Training & Internship",
            "job_link": "https://www.linkedin.com/jobs/view/ai-data-engineering-training-internship-at-refonte-learning-4014658588?position=47&pageNum=0&refId=adNNTmCAm1zEcshFvOmyMA%3D%3D&trackingId=QowfKgRhxnydeyh4JFo22g%3D%3D&trk=public_jobs_jserp-result_search-card",
            "job_description_id": null,
            "company_id": null,
            "created_at": "2024-09-01T07:04:55.485Z",
            "updated_at": "2024-09-01T07:04:55.485Z",
            "company_name": "Refonte Learning",
            "source": null,
            "scraped_from": null
        },
        {
            "id": 140309,
            "job_title": "Backend Engineer, 2500 US dollar (Remoto en Latinoamerica) [NodeJS]",
            "job_link": "https://www.linkedin.com/jobs/view/backend-engineer-2500-us-dollar-remoto-en-latinoamerica-nodejs-at-listopro-4012253033?position=26&pageNum=0&refId=adNNTmCAm1zEcshFvOmyMA%3D%3D&trackingId=MQ4QXHic3DPtzIQzkPaWxg%3D%3D&trk=public_jobs_jserp-result_search-card",
            "job_description_id": null,
            "company_id": null,
            "created_at": "2024-09-01T07:04:55.485Z",
            "updated_at": "2024-09-01T07:04:55.485Z",
            "company_name": "Listopro",
            "source": null,
            "scraped_from": null
        },
        {
            "id": 140313,
            "job_title": "Software Engineer II, Verifications Platform",
            "job_link": "https://www.linkedin.com/jobs/view/software-engineer-ii-verifications-platform-at-upstart-3944623876?position=35&pageNum=0&refId=adNNTmCAm1zEcshFvOmyMA%3D%3D&trackingId=jWt1XilKaTrfj%2FJ14MJI%2Bg%3D%3D&trk=public_jobs_jserp-result_search-card",
            "job_description_id": null,
            "company_id": null,
            "created_at": "2024-09-01T07:04:55.485Z",
            "updated_at": "2024-09-01T07:04:55.485Z",
            "company_name": "Upstart",
            "source": null,
            "scraped_from": null
        },
        {
            "id": 140317,
            "job_title": "Back End Engineer",
            "job_link": "https://www.linkedin.com/jobs/view/back-end-engineer-at-russell-tobin-3995355319?position=40&pageNum=0&refId=adNNTmCAm1zEcshFvOmyMA%3D%3D&trackingId=L%2BmHB%2FOpkToc%2Fp9t090Uaw%3D%3D&trk=public_jobs_jserp-result_search-card",
            "job_description_id": null,
            "company_id": null,
            "created_at": "2024-09-01T07:04:55.485Z",
            "updated_at": "2024-09-01T07:04:55.485Z",
            "company_name": "Russell Tobin",
            "source": null,
            "scraped_from": null
        },
        {
            "id": 140320,
            "job_title": "Java Developer - Remote in DMV",
            "job_link": "https://www.linkedin.com/jobs/view/java-developer-remote-in-dmv-at-remoteworker-ca-4012507869?position=45&pageNum=0&refId=adNNTmCAm1zEcshFvOmyMA%3D%3D&trackingId=Yx8AUwGpzyuTyDm2EPwkvg%3D%3D&trk=public_jobs_jserp-result_search-card",
            "job_description_id": null,
            "company_id": null,
            "created_at": "2024-09-01T07:04:55.485Z",
            "updated_at": "2024-09-01T07:04:55.485Z",
            "company_name": "RemoteWorker CA",
            "source": null,
            "scraped_from": null
        },
        {
            "id": 140305,
            "job_title": "Software Developer ( Remote )",
            "job_link": "https://www.linkedin.com/jobs/view/software-developer-remote-at-ihire-4012510278?position=17&pageNum=0&refId=adNNTmCAm1zEcshFvOmyMA%3D%3D&trackingId=aoOuG8BCWEBE5cUTlfdrvA%3D%3D&trk=public_jobs_jserp-result_search-card",
            "job_description_id": null,
            "company_id": null,
            "created_at": "2024-09-01T07:04:55.485Z",
            "updated_at": "2024-09-01T07:04:55.485Z",
            "company_name": "iHire",
            "source": null,
            "scraped_from": null
        },
        {
            "id": 140308,
            "job_title": "Software Engineer",
            "job_link": "https://www.linkedin.com/jobs/view/software-engineer-at-cengage-group-3959731135?position=25&pageNum=0&refId=adNNTmCAm1zEcshFvOmyMA%3D%3D&trackingId=oHYQ9R%2B%2B5BxxsVxef3NhDg%3D%3D&trk=public_jobs_jserp-result_search-card",
            "job_description_id": null,
            "company_id": null,
            "created_at": "2024-09-01T07:04:55.485Z",
            "updated_at": "2024-09-01T07:04:55.485Z",
            "company_name": "Cengage Group",
            "source": null,
            "scraped_from": null
        },
        {
            "id": 140311,
            "job_title": "ML Engineer",
            "job_link": "https://www.linkedin.com/jobs/view/ml-engineer-at-verdant-infotech-solutions-4012723823?position=30&pageNum=0&refId=adNNTmCAm1zEcshFvOmyMA%3D%3D&trackingId=yCkjIrfl9CwCPxo9EhzPKA%3D%3D&trk=public_jobs_jserp-result_search-card",
            "job_description_id": null,
            "company_id": null,
            "created_at": "2024-09-01T07:04:55.485Z",
            "updated_at": "2024-09-01T07:04:55.485Z",
            "company_name": "Verdant Infotech Solutions",
            "source": null,
            "scraped_from": null
        },
        {
            "id": 140312,
            "job_title": "Dotnet Developer",
            "job_link": "https://www.linkedin.com/jobs/view/dotnet-developer-at-falcon-smart-it-falconsmartit-4014457385?position=33&pageNum=0&refId=adNNTmCAm1zEcshFvOmyMA%3D%3D&trackingId=l7wzAO4SEODYuXUZSnGWPQ%3D%3D&trk=public_jobs_jserp-result_search-card",
            "job_description_id": null,
            "company_id": null,
            "created_at": "2024-09-01T07:04:55.485Z",
            "updated_at": "2024-09-01T07:04:55.485Z",
            "company_name": "Falcon Smart IT (FalconSmartIT)",
            "source": null,
            "scraped_from": null
        },
        {
            "id": 140315,
            "job_title": "Software Development Engineer in Test (SDET)- Remote",
            "job_link": "https://www.linkedin.com/jobs/view/software-development-engineer-in-test-sdet-remote-at-steris-4012514286?position=39&pageNum=0&refId=adNNTmCAm1zEcshFvOmyMA%3D%3D&trackingId=EDI1J%2BZDNqnD0dHaWqCkSg%3D%3D&trk=public_jobs_jserp-result_search-card",
            "job_description_id": null,
            "company_id": null,
            "created_at": "2024-09-01T07:04:55.485Z",
            "updated_at": "2024-09-01T07:04:55.485Z",
            "company_name": "STERIS",
            "source": null,
            "scraped_from": null
        },
        {
            "id": 140316,
            "job_title": "Analytics Engineer",
            "job_link": "https://www.linkedin.com/jobs/view/analytics-engineer-at-amplify-3901697629?position=59&pageNum=0&refId=zF3Hew6R8XpPBvklEuguWg%3D%3D&trackingId=Lc1XPGqCXEC6tro7wf4UPw%3D%3D&trk=public_jobs_jserp-result_search-card",
            "job_description_id": null,
            "company_id": null,
            "created_at": "2024-09-01T07:04:55.485Z",
            "updated_at": "2024-09-01T07:04:55.485Z",
            "company_name": "Amplify",
            "source": null,
            "scraped_from": null
        },
        {
            "id": 140318,
            "job_title": "Technology Development Program - Software Engineering",
            "job_link": "https://www.linkedin.com/jobs/view/technology-development-program-software-engineering-at-geico-3995436584?position=41&pageNum=0&refId=adNNTmCAm1zEcshFvOmyMA%3D%3D&trackingId=e9vdfsENn%2FJ8XgjAbLQwjg%3D%3D&trk=public_jobs_jserp-result_search-card",
            "job_description_id": null,
            "company_id": null,
            "created_at": "2024-09-01T07:04:55.485Z",
            "updated_at": "2024-09-01T07:04:55.485Z",
            "company_name": "GEICO",
            "source": null,
            "scraped_from": null
        },
        {
            "id": 140319,
            "job_title": "Software Engineer",
            "job_link": "https://www.linkedin.com/jobs/view/software-engineer-at-robert-half-3989167862?position=44&pageNum=0&refId=adNNTmCAm1zEcshFvOmyMA%3D%3D&trackingId=ayrKw%2BGh2hDE1M%2BU%2BqV6LQ%3D%3D&trk=public_jobs_jserp-result_search-card",
            "job_description_id": null,
            "company_id": null,
            "created_at": "2024-09-01T07:04:55.485Z",
            "updated_at": "2024-09-01T07:04:55.485Z",
            "company_name": "Robert Half",
            "source": null,
            "scraped_from": null
        },
        {
            "id": 140303,
            "job_title": "Frontend Engineer",
            "job_link": "https://www.linkedin.com/jobs/view/frontend-engineer-at-landingai-4012539257?position=13&pageNum=0&refId=adNNTmCAm1zEcshFvOmyMA%3D%3D&trackingId=9IgcuWbRSE3xhxym1UaBhA%3D%3D&trk=public_jobs_jserp-result_search-card",
            "job_description_id": null,
            "company_id": null,
            "created_at": "2024-09-01T07:04:55.485Z",
            "updated_at": "2024-09-01T07:04:55.485Z",
            "company_name": "LandingAI",
            "source": null,
            "scraped_from": null
        },
        {
            "id": 140304,
            "job_title": "Full-Stack Developer Internship (Remote/Onsite in Miami)",
            "job_link": "https://www.linkedin.com/jobs/view/full-stack-developer-internship-remote-onsite-in-miami-at-augierai-com-4014609269?position=16&pageNum=0&refId=adNNTmCAm1zEcshFvOmyMA%3D%3D&trackingId=QiwvX4YI6%2BCqBNzTfF5h3Q%3D%3D&trk=public_jobs_jserp-result_search-card",
            "job_description_id": null,
            "company_id": null,
            "created_at": "2024-09-01T07:04:55.485Z",
            "updated_at": "2024-09-01T07:04:55.485Z",
            "company_name": "Augierai.com",
            "source": null,
            "scraped_from": null
        },
        {
            "id": 140306,
            "job_title": "Software Engineer",
            "job_link": "https://www.linkedin.com/jobs/view/software-engineer-at-waabi-4014465049?position=19&pageNum=0&refId=adNNTmCAm1zEcshFvOmyMA%3D%3D&trackingId=bDqJ6y%2BFUyMvsuXEBJLvMw%3D%3D&trk=public_jobs_jserp-result_search-card",
            "job_description_id": null,
            "company_id": null,
            "created_at": "2024-09-01T07:04:55.485Z",
            "updated_at": "2024-09-01T07:04:55.485Z",
            "company_name": "Waabi",
            "source": null,
            "scraped_from": null
        },
        {
            "id": 140307,
            "job_title": "Backend Engineer, 2500 US dollar (Remoto en Latinoamerica) [Express, NodeJS]",
            "job_link": "https://www.linkedin.com/jobs/view/backend-engineer-2500-us-dollar-remoto-en-latinoamerica-express-nodejs-at-listopro-4012253052?position=22&pageNum=0&refId=adNNTmCAm1zEcshFvOmyMA%3D%3D&trackingId=Tcd7dzGK8Sox2xe6gn3%2Ftw%3D%3D&trk=public_jobs_jserp-result_search-card",
            "job_description_id": null,
            "company_id": null,
            "created_at": "2024-09-01T07:04:55.485Z",
            "updated_at": "2024-09-01T07:04:55.485Z",
            "company_name": "Listopro",
            "source": null,
            "scraped_from": null
        },
        {
            "id": 140310,
            "job_title": "Full-Stack .Net Developer",
            "job_link": "https://www.linkedin.com/jobs/view/full-stack-net-developer-at-flash-3997649844?position=28&pageNum=0&refId=adNNTmCAm1zEcshFvOmyMA%3D%3D&trackingId=YZo1BBDKr%2BhMT7aleO9oGg%3D%3D&trk=public_jobs_jserp-result_search-card",
            "job_description_id": null,
            "company_id": null,
            "created_at": "2024-09-01T07:04:55.485Z",
            "updated_at": "2024-09-01T07:04:55.485Z",
            "company_name": "Flash",
            "source": null,
            "scraped_from": null
        },
        {
            "id": 140322,
            "job_title": "Staff Software Engineer - Issuing, Financial Platform",
            "job_link": "https://www.linkedin.com/jobs/view/staff-software-engineer-issuing-financial-platform-at-cash-app-3997688411?position=49&pageNum=0&refId=adNNTmCAm1zEcshFvOmyMA%3D%3D&trackingId=GotlTi62SAf7BFRWckrJOA%3D%3D&trk=public_jobs_jserp-result_search-card",
            "job_description_id": null,
            "company_id": null,
            "created_at": "2024-09-01T07:04:55.485Z",
            "updated_at": "2024-09-01T07:04:55.485Z",
            "company_name": "Cash App",
            "source": null,
            "scraped_from": null
        }
    ],
    "prev_url": "/api/v0/job_listings?page=",
    "next_url": "/api/v0/job_listings?page=2",
    "count": 72871,
    "page": 1,
    "last_url": "/api/v0/job_listings?page=3644",
    "page_url": "/api/v0/job_listings?page=1"
}
